%YAML 1.1
%TAG !u! tag:unity3d.com,2011:
--- !u!29 &1
OcclusionCullingSettings:
  m_ObjectHideFlags: 0
  serializedVersion: 2
  m_OcclusionBakeSettings:
    smallestOccluder: 5
    smallestHole: 0.25
    backfaceThreshold: 100
  m_SceneGUID: 00000000000000000000000000000000
  m_OcclusionCullingData: {fileID: 0}
--- !u!104 &2
RenderSettings:
  m_ObjectHideFlags: 0
  serializedVersion: 8
  m_Fog: 0
  m_FogColor: {r: 0.5, g: 0.5, b: 0.5, a: 1}
  m_FogMode: 3
  m_FogDensity: 0.01
  m_LinearFogStart: 0
  m_LinearFogEnd: 300
  m_AmbientSkyColor: {r: 0.212, g: 0.227, b: 0.259, a: 1}
  m_AmbientEquatorColor: {r: 0.114, g: 0.125, b: 0.133, a: 1}
  m_AmbientGroundColor: {r: 0.047, g: 0.043, b: 0.035, a: 1}
  m_AmbientIntensity: 1
  m_AmbientMode: 0
  m_SubtractiveShadowColor: {r: 0.42, g: 0.478, b: 0.627, a: 1}
  m_SkyboxMaterial: {fileID: 10304, guid: 0000000000000000f000000000000000, type: 0}
  m_HaloStrength: 0.5
  m_FlareStrength: 1
  m_FlareFadeSpeed: 3
  m_HaloTexture: {fileID: 0}
  m_SpotCookie: {fileID: 10001, guid: 0000000000000000e000000000000000, type: 0}
  m_DefaultReflectionMode: 0
  m_DefaultReflectionResolution: 128
  m_ReflectionBounces: 1
  m_ReflectionIntensity: 1
  m_CustomReflection: {fileID: 0}
  m_Sun: {fileID: 0}
  m_IndirectSpecularColor: {r: 0, g: 0, b: 0, a: 1}
--- !u!157 &3
LightmapSettings:
  m_ObjectHideFlags: 0
  serializedVersion: 11
  m_GIWorkflowMode: 0
  m_GISettings:
    serializedVersion: 2
    m_BounceScale: 1
    m_IndirectOutputScale: 1
    m_AlbedoBoost: 1
    m_TemporalCoherenceThreshold: 1
    m_EnvironmentLightingMode: 0
    m_EnableBakedLightmaps: 1
    m_EnableRealtimeLightmaps: 1
  m_LightmapEditorSettings:
    serializedVersion: 9
    m_Resolution: 2
    m_BakeResolution: 40
    m_TextureWidth: 1024
    m_TextureHeight: 1024
    m_AO: 0
    m_AOMaxDistance: 1
    m_CompAOExponent: 1
    m_CompAOExponentDirect: 0
    m_Padding: 2
    m_LightmapParameters: {fileID: 0}
    m_LightmapsBakeMode: 1
    m_TextureCompression: 1
    m_FinalGather: 0
    m_FinalGatherFiltering: 1
    m_FinalGatherRayCount: 256
    m_ReflectionCompression: 2
    m_MixedBakeMode: 1
    m_BakeBackend: 0
    m_PVRSampling: 1
    m_PVRDirectSampleCount: 32
    m_PVRSampleCount: 500
    m_PVRBounces: 2
    m_PVRFilterTypeDirect: 0
    m_PVRFilterTypeIndirect: 0
    m_PVRFilterTypeAO: 0
    m_PVRFilteringMode: 0
    m_PVRCulling: 1
    m_PVRFilteringGaussRadiusDirect: 1
    m_PVRFilteringGaussRadiusIndirect: 5
    m_PVRFilteringGaussRadiusAO: 2
    m_PVRFilteringAtrousPositionSigmaDirect: 0.5
    m_PVRFilteringAtrousPositionSigmaIndirect: 2
    m_PVRFilteringAtrousPositionSigmaAO: 1
    m_ShowResolutionOverlay: 1
  m_LightingDataAsset: {fileID: 0}
  m_UseShadowmask: 0
--- !u!196 &4
NavMeshSettings:
  serializedVersion: 2
  m_ObjectHideFlags: 0
  m_BuildSettings:
    serializedVersion: 2
    agentTypeID: 0
    agentRadius: 0.5
    agentHeight: 2
    agentSlope: 45
    agentClimb: 0.4
    ledgeDropHeight: 0
    maxJumpAcrossDistance: 0
    minRegionArea: 2
    manualCellSize: 0
    cellSize: 0.16666667
    manualTileSize: 0
    tileSize: 256
    accuratePlacement: 0
    debug:
      m_Flags: 0
  m_NavMeshData: {fileID: 0}
--- !u!1 &213425667
GameObject:
  m_ObjectHideFlags: 0
  m_PrefabParentObject: {fileID: 1838218614546268, guid: 779b33d795a27a344b2529c485fffd53,
    type: 2}
  m_PrefabInternal: {fileID: 1324948059}
  serializedVersion: 5
  m_Component:
  - component: {fileID: 1324948060}
  - component: {fileID: 213425669}
  - component: {fileID: 213425668}
  m_Layer: 0
  m_Name: StarSparrow6
  m_TagString: Untagged
  m_Icon: {fileID: 0}
  m_NavMeshLayer: 0
  m_StaticEditorFlags: 0
  m_IsActive: 1
--- !u!23 &213425668
MeshRenderer:
  m_ObjectHideFlags: 0
  m_PrefabParentObject: {fileID: 23015420930479412, guid: 779b33d795a27a344b2529c485fffd53,
    type: 2}
  m_PrefabInternal: {fileID: 1324948059}
  m_GameObject: {fileID: 213425667}
  m_Enabled: 1
  m_CastShadows: 1
  m_ReceiveShadows: 1
  m_DynamicOccludee: 1
  m_MotionVectors: 1
  m_LightProbeUsage: 1
  m_ReflectionProbeUsage: 1
  m_Materials:
  - {fileID: 2100000, guid: aee7897680ceddf44be194de5cf7c7ea, type: 2}
  m_StaticBatchInfo:
    firstSubMesh: 0
    subMeshCount: 0
  m_StaticBatchRoot: {fileID: 0}
  m_ProbeAnchor: {fileID: 0}
  m_LightProbeVolumeOverride: {fileID: 0}
  m_ScaleInLightmap: 1
  m_PreserveUVs: 0
  m_IgnoreNormalsForChartDetection: 0
  m_ImportantGI: 0
  m_StitchLightmapSeams: 0
  m_SelectedEditorRenderState: 3
  m_MinimumChartSize: 4
  m_AutoUVMaxDistance: 0.5
  m_AutoUVMaxAngle: 89
  m_LightmapParameters: {fileID: 0}
  m_SortingLayerID: 0
  m_SortingLayer: 0
  m_SortingOrder: 0
--- !u!33 &213425669
MeshFilter:
  m_ObjectHideFlags: 0
  m_PrefabParentObject: {fileID: 33550809005343020, guid: 779b33d795a27a344b2529c485fffd53,
    type: 2}
  m_PrefabInternal: {fileID: 1324948059}
  m_GameObject: {fileID: 213425667}
  m_Mesh: {fileID: 4300010, guid: add769d179a9826498fc063c005d35bd, type: 3}
--- !u!1 &370160936
GameObject:
  m_ObjectHideFlags: 0
  m_PrefabParentObject: {fileID: 1399213806761766, guid: ef4bf1f71d0bfc04fb5e3c6104f94bfd,
    type: 2}
  m_PrefabInternal: {fileID: 709056911}
  serializedVersion: 5
  m_Component:
  - component: {fileID: 709056912}
  - component: {fileID: 370160938}
  - component: {fileID: 370160937}
  m_Layer: 0
  m_Name: StarSparrow4
  m_TagString: Untagged
  m_Icon: {fileID: 0}
  m_NavMeshLayer: 0
  m_StaticEditorFlags: 0
  m_IsActive: 1
--- !u!23 &370160937
MeshRenderer:
  m_ObjectHideFlags: 0
  m_PrefabParentObject: {fileID: 23232251706599522, guid: ef4bf1f71d0bfc04fb5e3c6104f94bfd,
    type: 2}
  m_PrefabInternal: {fileID: 709056911}
  m_GameObject: {fileID: 370160936}
  m_Enabled: 1
  m_CastShadows: 1
  m_ReceiveShadows: 1
  m_DynamicOccludee: 1
  m_MotionVectors: 1
  m_LightProbeUsage: 1
  m_ReflectionProbeUsage: 1
  m_Materials:
  - {fileID: 2100000, guid: aee7897680ceddf44be194de5cf7c7ea, type: 2}
  m_StaticBatchInfo:
    firstSubMesh: 0
    subMeshCount: 0
  m_StaticBatchRoot: {fileID: 0}
  m_ProbeAnchor: {fileID: 0}
  m_LightProbeVolumeOverride: {fileID: 0}
  m_ScaleInLightmap: 1
  m_PreserveUVs: 0
  m_IgnoreNormalsForChartDetection: 0
  m_ImportantGI: 0
  m_StitchLightmapSeams: 0
  m_SelectedEditorRenderState: 3
  m_MinimumChartSize: 4
  m_AutoUVMaxDistance: 0.5
  m_AutoUVMaxAngle: 89
  m_LightmapParameters: {fileID: 0}
  m_SortingLayerID: 0
  m_SortingLayer: 0
  m_SortingOrder: 0
--- !u!33 &370160938
MeshFilter:
  m_ObjectHideFlags: 0
  m_PrefabParentObject: {fileID: 33874719079420790, guid: ef4bf1f71d0bfc04fb5e3c6104f94bfd,
    type: 2}
  m_PrefabInternal: {fileID: 709056911}
  m_GameObject: {fileID: 370160936}
  m_Mesh: {fileID: 4300006, guid: add769d179a9826498fc063c005d35bd, type: 3}
--- !u!1001 &402635653
Prefab:
  m_ObjectHideFlags: 0
  serializedVersion: 2
  m_Modification:
    m_TransformParent: {fileID: 2027220528}
    m_Modifications:
    - target: {fileID: 4171657299692482, guid: 55d96a484db39544f93ff48af6168524, type: 2}
      propertyPath: m_LocalPosition.x
      value: -0.00000015258789
      objectReference: {fileID: 0}
    - target: {fileID: 4171657299692482, guid: 55d96a484db39544f93ff48af6168524, type: 2}
      propertyPath: m_LocalPosition.y
      value: 0
      objectReference: {fileID: 0}
    - target: {fileID: 4171657299692482, guid: 55d96a484db39544f93ff48af6168524, type: 2}
      propertyPath: m_LocalPosition.z
      value: -20
      objectReference: {fileID: 0}
    - target: {fileID: 4171657299692482, guid: 55d96a484db39544f93ff48af6168524, type: 2}
      propertyPath: m_LocalRotation.x
      value: 0.000000021855694
      objectReference: {fileID: 0}
    - target: {fileID: 4171657299692482, guid: 55d96a484db39544f93ff48af6168524, type: 2}
      propertyPath: m_LocalRotation.y
      value: -0
      objectReference: {fileID: 0}
    - target: {fileID: 4171657299692482, guid: 55d96a484db39544f93ff48af6168524, type: 2}
      propertyPath: m_LocalRotation.z
      value: -0
      objectReference: {fileID: 0}
    - target: {fileID: 4171657299692482, guid: 55d96a484db39544f93ff48af6168524, type: 2}
      propertyPath: m_LocalRotation.w
      value: 1
      objectReference: {fileID: 0}
    - target: {fileID: 4171657299692482, guid: 55d96a484db39544f93ff48af6168524, type: 2}
      propertyPath: m_RootOrder
      value: 4
      objectReference: {fileID: 0}
    m_RemovedComponents: []
  m_ParentPrefab: {fileID: 100100000, guid: 55d96a484db39544f93ff48af6168524, type: 2}
  m_RootGameObject: {fileID: 1303194032}
  m_IsPrefabParent: 0
--- !u!4 &402635654
Transform:
  m_ObjectHideFlags: 0
  m_PrefabParentObject: {fileID: 4171657299692482, guid: 55d96a484db39544f93ff48af6168524,
    type: 2}
  m_PrefabInternal: {fileID: 402635653}
  m_GameObject: {fileID: 1303194032}
  m_LocalRotation: {x: 0.000000021855694, y: -0, z: -0, w: 1}
  m_LocalPosition: {x: -0.00000015258789, y: 0, z: -20}
  m_LocalScale: {x: 1, y: 1, z: 1}
  m_Children: []
  m_Father: {fileID: 2027220528}
  m_RootOrder: 4
  m_LocalEulerAnglesHint: {x: 0, y: 0, z: 0}
--- !u!1 &469238750
GameObject:
  m_ObjectHideFlags: 0
  m_PrefabParentObject: {fileID: 1491637683152850, guid: 7ef1c299b15f1e04d9c8ee1e8a71d2ba,
    type: 2}
  m_PrefabInternal: {fileID: 1460490628}
  serializedVersion: 5
  m_Component:
  - component: {fileID: 1460490629}
  - component: {fileID: 469238752}
  - component: {fileID: 469238751}
  m_Layer: 0
  m_Name: StarSparrow8
  m_TagString: Untagged
  m_Icon: {fileID: 0}
  m_NavMeshLayer: 0
  m_StaticEditorFlags: 0
  m_IsActive: 1
--- !u!23 &469238751
MeshRenderer:
  m_ObjectHideFlags: 0
  m_PrefabParentObject: {fileID: 23959695497173786, guid: 7ef1c299b15f1e04d9c8ee1e8a71d2ba,
    type: 2}
  m_PrefabInternal: {fileID: 1460490628}
  m_GameObject: {fileID: 469238750}
  m_Enabled: 1
  m_CastShadows: 1
  m_ReceiveShadows: 1
  m_DynamicOccludee: 1
  m_MotionVectors: 1
  m_LightProbeUsage: 1
  m_ReflectionProbeUsage: 1
  m_Materials:
  - {fileID: 2100000, guid: 7b00ad4295b0f574a9fed9ba6f5edb23, type: 2}
  m_StaticBatchInfo:
    firstSubMesh: 0
    subMeshCount: 0
  m_StaticBatchRoot: {fileID: 0}
  m_ProbeAnchor: {fileID: 0}
  m_LightProbeVolumeOverride: {fileID: 0}
  m_ScaleInLightmap: 1
  m_PreserveUVs: 0
  m_IgnoreNormalsForChartDetection: 0
  m_ImportantGI: 0
  m_StitchLightmapSeams: 0
  m_SelectedEditorRenderState: 3
  m_MinimumChartSize: 4
  m_AutoUVMaxDistance: 0.5
  m_AutoUVMaxAngle: 89
  m_LightmapParameters: {fileID: 0}
  m_SortingLayerID: 0
  m_SortingLayer: 0
  m_SortingOrder: 0
--- !u!33 &469238752
MeshFilter:
  m_ObjectHideFlags: 0
  m_PrefabParentObject: {fileID: 33786354711244044, guid: 7ef1c299b15f1e04d9c8ee1e8a71d2ba,
    type: 2}
  m_PrefabInternal: {fileID: 1460490628}
  m_GameObject: {fileID: 469238750}
  m_Mesh: {fileID: 4300014, guid: add769d179a9826498fc063c005d35bd, type: 3}
--- !u!1001 &581107167
Prefab:
  m_ObjectHideFlags: 0
  serializedVersion: 2
  m_Modification:
    m_TransformParent: {fileID: 2027220528}
    m_Modifications:
    - target: {fileID: 4381742140898236, guid: f691ea6857fd397438a6883bea62a396, type: 2}
      propertyPath: m_LocalPosition.x
      value: -0.00000015258789
      objectReference: {fileID: 0}
    - target: {fileID: 4381742140898236, guid: f691ea6857fd397438a6883bea62a396, type: 2}
      propertyPath: m_LocalPosition.y
      value: 0
      objectReference: {fileID: 0}
    - target: {fileID: 4381742140898236, guid: f691ea6857fd397438a6883bea62a396, type: 2}
      propertyPath: m_LocalPosition.z
      value: -5
      objectReference: {fileID: 0}
    - target: {fileID: 4381742140898236, guid: f691ea6857fd397438a6883bea62a396, type: 2}
      propertyPath: m_LocalRotation.x
      value: 0.000000021855694
      objectReference: {fileID: 0}
    - target: {fileID: 4381742140898236, guid: f691ea6857fd397438a6883bea62a396, type: 2}
      propertyPath: m_LocalRotation.y
      value: -0
      objectReference: {fileID: 0}
    - target: {fileID: 4381742140898236, guid: f691ea6857fd397438a6883bea62a396, type: 2}
      propertyPath: m_LocalRotation.z
      value: -0
      objectReference: {fileID: 0}
    - target: {fileID: 4381742140898236, guid: f691ea6857fd397438a6883bea62a396, type: 2}
      propertyPath: m_LocalRotation.w
      value: 1
      objectReference: {fileID: 0}
    - target: {fileID: 4381742140898236, guid: f691ea6857fd397438a6883bea62a396, type: 2}
      propertyPath: m_RootOrder
      value: 1
      objectReference: {fileID: 0}
    m_RemovedComponents: []
  m_ParentPrefab: {fileID: 100100000, guid: f691ea6857fd397438a6883bea62a396, type: 2}
  m_RootGameObject: {fileID: 1674137491}
  m_IsPrefabParent: 0
--- !u!4 &581107168
Transform:
  m_ObjectHideFlags: 0
  m_PrefabParentObject: {fileID: 4381742140898236, guid: f691ea6857fd397438a6883bea62a396,
    type: 2}
  m_PrefabInternal: {fileID: 581107167}
  m_GameObject: {fileID: 1674137491}
  m_LocalRotation: {x: 0.000000021855694, y: -0, z: -0, w: 1}
  m_LocalPosition: {x: -0.00000015258789, y: 0, z: -5}
  m_LocalScale: {x: 1, y: 1, z: 1}
  m_Children: []
  m_Father: {fileID: 2027220528}
  m_RootOrder: 1
  m_LocalEulerAnglesHint: {x: 0, y: 0, z: 0}
--- !u!1001 &604967111
Prefab:
  m_ObjectHideFlags: 0
  serializedVersion: 2
  m_Modification:
    m_TransformParent: {fileID: 2027220528}
    m_Modifications:
    - target: {fileID: 4196964187462858, guid: 5a59e7f141bdb514d90a220630e435ff, type: 2}
      propertyPath: m_LocalPosition.x
      value: -0.00000015258789
      objectReference: {fileID: 0}
    - target: {fileID: 4196964187462858, guid: 5a59e7f141bdb514d90a220630e435ff, type: 2}
      propertyPath: m_LocalPosition.y
      value: 0
      objectReference: {fileID: 0}
    - target: {fileID: 4196964187462858, guid: 5a59e7f141bdb514d90a220630e435ff, type: 2}
      propertyPath: m_LocalPosition.z
      value: -10
      objectReference: {fileID: 0}
    - target: {fileID: 4196964187462858, guid: 5a59e7f141bdb514d90a220630e435ff, type: 2}
      propertyPath: m_LocalRotation.x
      value: 0.000000021855694
      objectReference: {fileID: 0}
    - target: {fileID: 4196964187462858, guid: 5a59e7f141bdb514d90a220630e435ff, type: 2}
      propertyPath: m_LocalRotation.y
      value: -0
      objectReference: {fileID: 0}
    - target: {fileID: 4196964187462858, guid: 5a59e7f141bdb514d90a220630e435ff, type: 2}
      propertyPath: m_LocalRotation.z
      value: -0
      objectReference: {fileID: 0}
    - target: {fileID: 4196964187462858, guid: 5a59e7f141bdb514d90a220630e435ff, type: 2}
      propertyPath: m_LocalRotation.w
      value: 1
      objectReference: {fileID: 0}
    - target: {fileID: 4196964187462858, guid: 5a59e7f141bdb514d90a220630e435ff, type: 2}
      propertyPath: m_RootOrder
      value: 2
      objectReference: {fileID: 0}
    m_RemovedComponents: []
  m_ParentPrefab: {fileID: 100100000, guid: 5a59e7f141bdb514d90a220630e435ff, type: 2}
  m_RootGameObject: {fileID: 734631023}
  m_IsPrefabParent: 0
--- !u!4 &604967112
Transform:
  m_ObjectHideFlags: 0
  m_PrefabParentObject: {fileID: 4196964187462858, guid: 5a59e7f141bdb514d90a220630e435ff,
    type: 2}
  m_PrefabInternal: {fileID: 604967111}
  m_GameObject: {fileID: 734631023}
  m_LocalRotation: {x: 0.000000021855694, y: -0, z: -0, w: 1}
  m_LocalPosition: {x: -0.00000015258789, y: 0, z: -10}
  m_LocalScale: {x: 1, y: 1, z: 1}
  m_Children: []
  m_Father: {fileID: 2027220528}
  m_RootOrder: 2
  m_LocalEulerAnglesHint: {x: 0, y: 0, z: 0}
--- !u!1 &678017641
GameObject:
  m_ObjectHideFlags: 0
  m_PrefabParentObject: {fileID: 0}
  m_PrefabInternal: {fileID: 0}
  serializedVersion: 5
  m_Component:
  - component: {fileID: 678017643}
  - component: {fileID: 678017642}
  m_Layer: 0
  m_Name: Directional Light
  m_TagString: Untagged
  m_Icon: {fileID: 0}
  m_NavMeshLayer: 0
  m_StaticEditorFlags: 0
  m_IsActive: 1
--- !u!108 &678017642
Light:
  m_ObjectHideFlags: 0
  m_PrefabParentObject: {fileID: 0}
  m_PrefabInternal: {fileID: 0}
  m_GameObject: {fileID: 678017641}
  m_Enabled: 1
  serializedVersion: 8
  m_Type: 1
  m_Color: {r: 1, g: 0.95686275, b: 0.8392157, a: 1}
  m_Intensity: 1
  m_Range: 10
  m_SpotAngle: 30
  m_CookieSize: 10
  m_Shadows:
    m_Type: 2
    m_Resolution: -1
    m_CustomResolution: -1
    m_Strength: 1
    m_Bias: 0.05
    m_NormalBias: 0.4
    m_NearPlane: 0.2
  m_Cookie: {fileID: 0}
  m_DrawHalo: 0
  m_Flare: {fileID: 0}
  m_RenderMode: 0
  m_CullingMask:
    serializedVersion: 2
    m_Bits: 4294967295
  m_Lightmapping: 4
  m_AreaSize: {x: 1, y: 1}
  m_BounceIntensity: 1
  m_ColorTemperature: 6570
  m_UseColorTemperature: 0
  m_ShadowRadius: 0
  m_ShadowAngle: 0
--- !u!4 &678017643
Transform:
  m_ObjectHideFlags: 0
  m_PrefabParentObject: {fileID: 0}
  m_PrefabInternal: {fileID: 0}
  m_GameObject: {fileID: 678017641}
  m_LocalRotation: {x: 0.40821788, y: -0.23456968, z: 0.10938163, w: 0.8754261}
  m_LocalPosition: {x: 0, y: 3, z: 3.25}
  m_LocalScale: {x: 1, y: 1, z: 1}
  m_Children: []
  m_Father: {fileID: 0}
  m_RootOrder: 2
  m_LocalEulerAnglesHint: {x: 50, y: -30, z: 0}
--- !u!1001 &709056911
Prefab:
  m_ObjectHideFlags: 0
  serializedVersion: 2
  m_Modification:
    m_TransformParent: {fileID: 2027220528}
    m_Modifications:
    - target: {fileID: 4503845144488936, guid: ef4bf1f71d0bfc04fb5e3c6104f94bfd, type: 2}
      propertyPath: m_LocalPosition.x
      value: -0.00000015258789
      objectReference: {fileID: 0}
    - target: {fileID: 4503845144488936, guid: ef4bf1f71d0bfc04fb5e3c6104f94bfd, type: 2}
      propertyPath: m_LocalPosition.y
      value: 0
      objectReference: {fileID: 0}
    - target: {fileID: 4503845144488936, guid: ef4bf1f71d0bfc04fb5e3c6104f94bfd, type: 2}
      propertyPath: m_LocalPosition.z
      value: -15
      objectReference: {fileID: 0}
    - target: {fileID: 4503845144488936, guid: ef4bf1f71d0bfc04fb5e3c6104f94bfd, type: 2}
      propertyPath: m_LocalRotation.x
      value: 0.000000021855694
      objectReference: {fileID: 0}
    - target: {fileID: 4503845144488936, guid: ef4bf1f71d0bfc04fb5e3c6104f94bfd, type: 2}
      propertyPath: m_LocalRotation.y
      value: -0
      objectReference: {fileID: 0}
    - target: {fileID: 4503845144488936, guid: ef4bf1f71d0bfc04fb5e3c6104f94bfd, type: 2}
      propertyPath: m_LocalRotation.z
      value: -0
      objectReference: {fileID: 0}
    - target: {fileID: 4503845144488936, guid: ef4bf1f71d0bfc04fb5e3c6104f94bfd, type: 2}
      propertyPath: m_LocalRotation.w
      value: 1
      objectReference: {fileID: 0}
    - target: {fileID: 4503845144488936, guid: ef4bf1f71d0bfc04fb5e3c6104f94bfd, type: 2}
      propertyPath: m_RootOrder
      value: 3
      objectReference: {fileID: 0}
    m_RemovedComponents: []
  m_ParentPrefab: {fileID: 100100000, guid: ef4bf1f71d0bfc04fb5e3c6104f94bfd, type: 2}
  m_RootGameObject: {fileID: 370160936}
  m_IsPrefabParent: 0
--- !u!4 &709056912
Transform:
  m_ObjectHideFlags: 0
  m_PrefabParentObject: {fileID: 4503845144488936, guid: ef4bf1f71d0bfc04fb5e3c6104f94bfd,
    type: 2}
  m_PrefabInternal: {fileID: 709056911}
  m_GameObject: {fileID: 370160936}
  m_LocalRotation: {x: 0.000000021855694, y: -0, z: -0, w: 1}
  m_LocalPosition: {x: -0.00000015258789, y: 0, z: -15}
  m_LocalScale: {x: 1, y: 1, z: 1}
  m_Children: []
  m_Father: {fileID: 2027220528}
  m_RootOrder: 3
  m_LocalEulerAnglesHint: {x: 0, y: 0, z: 0}
--- !u!1 &734631023
GameObject:
  m_ObjectHideFlags: 0
  m_PrefabParentObject: {fileID: 1833662237069076, guid: 5a59e7f141bdb514d90a220630e435ff,
    type: 2}
  m_PrefabInternal: {fileID: 604967111}
  serializedVersion: 5
  m_Component:
  - component: {fileID: 604967112}
  - component: {fileID: 734631025}
  - component: {fileID: 734631024}
  m_Layer: 0
  m_Name: StarSparrow3
  m_TagString: Untagged
  m_Icon: {fileID: 0}
  m_NavMeshLayer: 0
  m_StaticEditorFlags: 0
  m_IsActive: 1
--- !u!23 &734631024
MeshRenderer:
  m_ObjectHideFlags: 0
  m_PrefabParentObject: {fileID: 23209102352252818, guid: 5a59e7f141bdb514d90a220630e435ff,
    type: 2}
  m_PrefabInternal: {fileID: 604967111}
  m_GameObject: {fileID: 734631023}
  m_Enabled: 1
  m_CastShadows: 1
  m_ReceiveShadows: 1
  m_DynamicOccludee: 1
  m_MotionVectors: 1
  m_LightProbeUsage: 1
  m_ReflectionProbeUsage: 1
  m_Materials:
  - {fileID: 2100000, guid: 7d090668f84aa604a941239ff10d60fe, type: 2}
  m_StaticBatchInfo:
    firstSubMesh: 0
    subMeshCount: 0
  m_StaticBatchRoot: {fileID: 0}
  m_ProbeAnchor: {fileID: 0}
  m_LightProbeVolumeOverride: {fileID: 0}
  m_ScaleInLightmap: 1
  m_PreserveUVs: 0
  m_IgnoreNormalsForChartDetection: 0
  m_ImportantGI: 0
  m_StitchLightmapSeams: 0
  m_SelectedEditorRenderState: 3
  m_MinimumChartSize: 4
  m_AutoUVMaxDistance: 0.5
  m_AutoUVMaxAngle: 89
  m_LightmapParameters: {fileID: 0}
  m_SortingLayerID: 0
  m_SortingLayer: 0
  m_SortingOrder: 0
--- !u!33 &734631025
MeshFilter:
  m_ObjectHideFlags: 0
  m_PrefabParentObject: {fileID: 33646968151907906, guid: 5a59e7f141bdb514d90a220630e435ff,
    type: 2}
  m_PrefabInternal: {fileID: 604967111}
  m_GameObject: {fileID: 734631023}
  m_Mesh: {fileID: 4300004, guid: add769d179a9826498fc063c005d35bd, type: 3}
--- !u!1001 &1035366046
Prefab:
  m_ObjectHideFlags: 0
  serializedVersion: 2
  m_Modification:
    m_TransformParent: {fileID: 2027220528}
    m_Modifications:
    - target: {fileID: 4686261308016234, guid: 95aa6b0ea9b14bb408ddef02d6fcd193, type: 2}
      propertyPath: m_LocalPosition.x
      value: -0.00000015258789
      objectReference: {fileID: 0}
    - target: {fileID: 4686261308016234, guid: 95aa6b0ea9b14bb408ddef02d6fcd193, type: 2}
      propertyPath: m_LocalPosition.y
      value: 0
      objectReference: {fileID: 0}
    - target: {fileID: 4686261308016234, guid: 95aa6b0ea9b14bb408ddef02d6fcd193, type: 2}
      propertyPath: m_LocalPosition.z
      value: -30
      objectReference: {fileID: 0}
    - target: {fileID: 4686261308016234, guid: 95aa6b0ea9b14bb408ddef02d6fcd193, type: 2}
      propertyPath: m_LocalRotation.x
      value: 0.000000021855694
      objectReference: {fileID: 0}
    - target: {fileID: 4686261308016234, guid: 95aa6b0ea9b14bb408ddef02d6fcd193, type: 2}
      propertyPath: m_LocalRotation.y
      value: -0
      objectReference: {fileID: 0}
    - target: {fileID: 4686261308016234, guid: 95aa6b0ea9b14bb408ddef02d6fcd193, type: 2}
      propertyPath: m_LocalRotation.z
      value: -0
      objectReference: {fileID: 0}
    - target: {fileID: 4686261308016234, guid: 95aa6b0ea9b14bb408ddef02d6fcd193, type: 2}
      propertyPath: m_LocalRotation.w
      value: 1
      objectReference: {fileID: 0}
    - target: {fileID: 4686261308016234, guid: 95aa6b0ea9b14bb408ddef02d6fcd193, type: 2}
      propertyPath: m_RootOrder
      value: 6
      objectReference: {fileID: 0}
    m_RemovedComponents: []
  m_ParentPrefab: {fileID: 100100000, guid: 95aa6b0ea9b14bb408ddef02d6fcd193, type: 2}
  m_RootGameObject: {fileID: 1272895298}
  m_IsPrefabParent: 0
--- !u!4 &1035366047
Transform:
  m_ObjectHideFlags: 0
  m_PrefabParentObject: {fileID: 4686261308016234, guid: 95aa6b0ea9b14bb408ddef02d6fcd193,
    type: 2}
  m_PrefabInternal: {fileID: 1035366046}
  m_GameObject: {fileID: 1272895298}
  m_LocalRotation: {x: 0.000000021855694, y: -0, z: -0, w: 1}
  m_LocalPosition: {x: -0.00000015258789, y: 0, z: -30}
  m_LocalScale: {x: 1, y: 1, z: 1}
  m_Children: []
  m_Father: {fileID: 2027220528}
  m_RootOrder: 6
  m_LocalEulerAnglesHint: {x: 0, y: 0, z: 0}
--- !u!1 &1192041203
GameObject:
  m_ObjectHideFlags: 0
  m_PrefabParentObject: {fileID: 1770699315894654, guid: ccd04313267453f40890f0e3ddcf7720,
    type: 2}
  m_PrefabInternal: {fileID: 1223383453}
  serializedVersion: 5
  m_Component:
  - component: {fileID: 1223383454}
  - component: {fileID: 1192041205}
  - component: {fileID: 1192041204}
  m_Layer: 0
  m_Name: StarSparrow1
  m_TagString: Untagged
  m_Icon: {fileID: 0}
  m_NavMeshLayer: 0
  m_StaticEditorFlags: 0
  m_IsActive: 1
--- !u!23 &1192041204
MeshRenderer:
  m_ObjectHideFlags: 0
  m_PrefabParentObject: {fileID: 23208700391828330, guid: ccd04313267453f40890f0e3ddcf7720,
    type: 2}
  m_PrefabInternal: {fileID: 1223383453}
  m_GameObject: {fileID: 1192041203}
  m_Enabled: 1
  m_CastShadows: 1
  m_ReceiveShadows: 1
  m_DynamicOccludee: 1
  m_MotionVectors: 1
  m_LightProbeUsage: 1
  m_ReflectionProbeUsage: 1
  m_Materials:
  - {fileID: 2100000, guid: 786dec18edde8a14289922c9e2d93ccd, type: 2}
  m_StaticBatchInfo:
    firstSubMesh: 0
    subMeshCount: 0
  m_StaticBatchRoot: {fileID: 0}
  m_ProbeAnchor: {fileID: 0}
  m_LightProbeVolumeOverride: {fileID: 0}
  m_ScaleInLightmap: 1
  m_PreserveUVs: 0
  m_IgnoreNormalsForChartDetection: 0
  m_ImportantGI: 0
  m_StitchLightmapSeams: 0
  m_SelectedEditorRenderState: 3
  m_MinimumChartSize: 4
  m_AutoUVMaxDistance: 0.5
  m_AutoUVMaxAngle: 89
  m_LightmapParameters: {fileID: 0}
  m_SortingLayerID: 0
  m_SortingLayer: 0
  m_SortingOrder: 0
--- !u!33 &1192041205
MeshFilter:
  m_ObjectHideFlags: 0
  m_PrefabParentObject: {fileID: 33875047042248568, guid: ccd04313267453f40890f0e3ddcf7720,
    type: 2}
  m_PrefabInternal: {fileID: 1223383453}
  m_GameObject: {fileID: 1192041203}
  m_Mesh: {fileID: 4300000, guid: add769d179a9826498fc063c005d35bd, type: 3}
--- !u!1001 &1223383453
Prefab:
  m_ObjectHideFlags: 0
  serializedVersion: 2
  m_Modification:
    m_TransformParent: {fileID: 2027220528}
    m_Modifications:
    - target: {fileID: 4330142336339110, guid: ccd04313267453f40890f0e3ddcf7720, type: 2}
      propertyPath: m_LocalPosition.x
      value: -0.00000015258789
      objectReference: {fileID: 0}
    - target: {fileID: 4330142336339110, guid: ccd04313267453f40890f0e3ddcf7720, type: 2}
      propertyPath: m_LocalPosition.y
      value: 0
      objectReference: {fileID: 0}
    - target: {fileID: 4330142336339110, guid: ccd04313267453f40890f0e3ddcf7720, type: 2}
      propertyPath: m_LocalPosition.z
      value: 0
      objectReference: {fileID: 0}
    - target: {fileID: 4330142336339110, guid: ccd04313267453f40890f0e3ddcf7720, type: 2}
      propertyPath: m_LocalRotation.x
      value: 0.000000021855694
      objectReference: {fileID: 0}
    - target: {fileID: 4330142336339110, guid: ccd04313267453f40890f0e3ddcf7720, type: 2}
      propertyPath: m_LocalRotation.y
      value: -0
      objectReference: {fileID: 0}
    - target: {fileID: 4330142336339110, guid: ccd04313267453f40890f0e3ddcf7720, type: 2}
      propertyPath: m_LocalRotation.z
      value: -0
      objectReference: {fileID: 0}
    - target: {fileID: 4330142336339110, guid: ccd04313267453f40890f0e3ddcf7720, type: 2}
      propertyPath: m_LocalRotation.w
      value: 1
      objectReference: {fileID: 0}
    - target: {fileID: 4330142336339110, guid: ccd04313267453f40890f0e3ddcf7720, type: 2}
      propertyPath: m_RootOrder
      value: 0
      objectReference: {fileID: 0}
    m_RemovedComponents: []
  m_ParentPrefab: {fileID: 100100000, guid: ccd04313267453f40890f0e3ddcf7720, type: 2}
  m_RootGameObject: {fileID: 1192041203}
  m_IsPrefabParent: 0
--- !u!4 &1223383454
Transform:
  m_ObjectHideFlags: 0
  m_PrefabParentObject: {fileID: 4330142336339110, guid: ccd04313267453f40890f0e3ddcf7720,
    type: 2}
  m_PrefabInternal: {fileID: 1223383453}
  m_GameObject: {fileID: 1192041203}
  m_LocalRotation: {x: 0.000000021855694, y: -0, z: -0, w: 1}
  m_LocalPosition: {x: -0.00000015258789, y: 0, z: 0}
  m_LocalScale: {x: 1, y: 1, z: 1}
  m_Children: []
  m_Father: {fileID: 2027220528}
  m_RootOrder: 0
  m_LocalEulerAnglesHint: {x: 0, y: 0, z: 0}
--- !u!1 &1272895298
GameObject:
  m_ObjectHideFlags: 0
  m_PrefabParentObject: {fileID: 1785473713940698, guid: 95aa6b0ea9b14bb408ddef02d6fcd193,
    type: 2}
  m_PrefabInternal: {fileID: 1035366046}
  serializedVersion: 5
  m_Component:
  - component: {fileID: 1035366047}
  - component: {fileID: 1272895300}
  - component: {fileID: 1272895299}
  m_Layer: 0
  m_Name: StarSparrow7
  m_TagString: Untagged
  m_Icon: {fileID: 0}
  m_NavMeshLayer: 0
  m_StaticEditorFlags: 0
  m_IsActive: 1
--- !u!23 &1272895299
MeshRenderer:
  m_ObjectHideFlags: 0
  m_PrefabParentObject: {fileID: 23512033308108390, guid: 95aa6b0ea9b14bb408ddef02d6fcd193,
    type: 2}
  m_PrefabInternal: {fileID: 1035366046}
  m_GameObject: {fileID: 1272895298}
  m_Enabled: 1
  m_CastShadows: 1
  m_ReceiveShadows: 1
  m_DynamicOccludee: 1
  m_MotionVectors: 1
  m_LightProbeUsage: 1
  m_ReflectionProbeUsage: 1
  m_Materials:
  - {fileID: 2100000, guid: e4675792eaccba34c97f3692f5b6beee, type: 2}
  m_StaticBatchInfo:
    firstSubMesh: 0
    subMeshCount: 0
  m_StaticBatchRoot: {fileID: 0}
  m_ProbeAnchor: {fileID: 0}
  m_LightProbeVolumeOverride: {fileID: 0}
  m_ScaleInLightmap: 1
  m_PreserveUVs: 0
  m_IgnoreNormalsForChartDetection: 0
  m_ImportantGI: 0
  m_StitchLightmapSeams: 0
  m_SelectedEditorRenderState: 3
  m_MinimumChartSize: 4
  m_AutoUVMaxDistance: 0.5
  m_AutoUVMaxAngle: 89
  m_LightmapParameters: {fileID: 0}
  m_SortingLayerID: 0
  m_SortingLayer: 0
  m_SortingOrder: 0
--- !u!33 &1272895300
MeshFilter:
  m_ObjectHideFlags: 0
  m_PrefabParentObject: {fileID: 33340122691358442, guid: 95aa6b0ea9b14bb408ddef02d6fcd193,
    type: 2}
  m_PrefabInternal: {fileID: 1035366046}
  m_GameObject: {fileID: 1272895298}
  m_Mesh: {fileID: 4300012, guid: add769d179a9826498fc063c005d35bd, type: 3}
--- !u!1 &1303194032
GameObject:
  m_ObjectHideFlags: 0
  m_PrefabParentObject: {fileID: 1652952914670430, guid: 55d96a484db39544f93ff48af6168524,
    type: 2}
  m_PrefabInternal: {fileID: 402635653}
  serializedVersion: 5
  m_Component:
  - component: {fileID: 402635654}
  - component: {fileID: 1303194034}
  - component: {fileID: 1303194033}
  m_Layer: 0
  m_Name: StarSparrow5
  m_TagString: Untagged
  m_Icon: {fileID: 0}
  m_NavMeshLayer: 0
  m_StaticEditorFlags: 0
  m_IsActive: 1
--- !u!23 &1303194033
MeshRenderer:
  m_ObjectHideFlags: 0
  m_PrefabParentObject: {fileID: 23926040681851676, guid: 55d96a484db39544f93ff48af6168524,
    type: 2}
  m_PrefabInternal: {fileID: 402635653}
  m_GameObject: {fileID: 1303194032}
  m_Enabled: 1
  m_CastShadows: 1
  m_ReceiveShadows: 1
  m_DynamicOccludee: 1
  m_MotionVectors: 1
  m_LightProbeUsage: 1
  m_ReflectionProbeUsage: 1
  m_Materials:
  - {fileID: 2100000, guid: 66c0d76487e6f454e8ae053648bc45ef, type: 2}
  m_StaticBatchInfo:
    firstSubMesh: 0
    subMeshCount: 0
  m_StaticBatchRoot: {fileID: 0}
  m_ProbeAnchor: {fileID: 0}
  m_LightProbeVolumeOverride: {fileID: 0}
  m_ScaleInLightmap: 1
  m_PreserveUVs: 0
  m_IgnoreNormalsForChartDetection: 0
  m_ImportantGI: 0
  m_StitchLightmapSeams: 0
  m_SelectedEditorRenderState: 3
  m_MinimumChartSize: 4
  m_AutoUVMaxDistance: 0.5
  m_AutoUVMaxAngle: 89
  m_LightmapParameters: {fileID: 0}
  m_SortingLayerID: 0
  m_SortingLayer: 0
  m_SortingOrder: 0
--- !u!33 &1303194034
MeshFilter:
  m_ObjectHideFlags: 0
  m_PrefabParentObject: {fileID: 33752064579729974, guid: 55d96a484db39544f93ff48af6168524,
    type: 2}
  m_PrefabInternal: {fileID: 402635653}
  m_GameObject: {fileID: 1303194032}
  m_Mesh: {fileID: 4300008, guid: add769d179a9826498fc063c005d35bd, type: 3}
--- !u!1001 &1324948059
Prefab:
  m_ObjectHideFlags: 0
  serializedVersion: 2
  m_Modification:
    m_TransformParent: {fileID: 2027220528}
    m_Modifications:
    - target: {fileID: 4466922687808358, guid: 779b33d795a27a344b2529c485fffd53, type: 2}
      propertyPath: m_LocalPosition.x
      value: -0.00000015258789
      objectReference: {fileID: 0}
    - target: {fileID: 4466922687808358, guid: 779b33d795a27a344b2529c485fffd53, type: 2}
      propertyPath: m_LocalPosition.y
      value: 0
      objectReference: {fileID: 0}
    - target: {fileID: 4466922687808358, guid: 779b33d795a27a344b2529c485fffd53, type: 2}
      propertyPath: m_LocalPosition.z
      value: -25
      objectReference: {fileID: 0}
    - target: {fileID: 4466922687808358, guid: 779b33d795a27a344b2529c485fffd53, type: 2}
      propertyPath: m_LocalRotation.x
      value: 0.000000021855694
      objectReference: {fileID: 0}
    - target: {fileID: 4466922687808358, guid: 779b33d795a27a344b2529c485fffd53, type: 2}
      propertyPath: m_LocalRotation.y
      value: -0
      objectReference: {fileID: 0}
    - target: {fileID: 4466922687808358, guid: 779b33d795a27a344b2529c485fffd53, type: 2}
      propertyPath: m_LocalRotation.z
      value: -0
      objectReference: {fileID: 0}
    - target: {fileID: 4466922687808358, guid: 779b33d795a27a344b2529c485fffd53, type: 2}
      propertyPath: m_LocalRotation.w
      value: 1
      objectReference: {fileID: 0}
    - target: {fileID: 4466922687808358, guid: 779b33d795a27a344b2529c485fffd53, type: 2}
      propertyPath: m_RootOrder
      value: 5
      objectReference: {fileID: 0}
    m_RemovedComponents: []
  m_ParentPrefab: {fileID: 100100000, guid: 779b33d795a27a344b2529c485fffd53, type: 2}
  m_RootGameObject: {fileID: 213425667}
  m_IsPrefabParent: 0
--- !u!4 &1324948060
Transform:
  m_ObjectHideFlags: 0
  m_PrefabParentObject: {fileID: 4466922687808358, guid: 779b33d795a27a344b2529c485fffd53,
    type: 2}
  m_PrefabInternal: {fileID: 1324948059}
  m_GameObject: {fileID: 213425667}
  m_LocalRotation: {x: 0.000000021855694, y: -0, z: -0, w: 1}
  m_LocalPosition: {x: -0.00000015258789, y: 0, z: -25}
  m_LocalScale: {x: 1, y: 1, z: 1}
  m_Children: []
  m_Father: {fileID: 2027220528}
  m_RootOrder: 5
  m_LocalEulerAnglesHint: {x: 0, y: 0, z: 0}
--- !u!1001 &1460490628
Prefab:
  m_ObjectHideFlags: 0
  serializedVersion: 2
  m_Modification:
    m_TransformParent: {fileID: 2027220528}
    m_Modifications:
    - target: {fileID: 4982120152876262, guid: 7ef1c299b15f1e04d9c8ee1e8a71d2ba, type: 2}
      propertyPath: m_LocalPosition.x
      value: -0.00000015258789
      objectReference: {fileID: 0}
    - target: {fileID: 4982120152876262, guid: 7ef1c299b15f1e04d9c8ee1e8a71d2ba, type: 2}
      propertyPath: m_LocalPosition.y
      value: 0
      objectReference: {fileID: 0}
    - target: {fileID: 4982120152876262, guid: 7ef1c299b15f1e04d9c8ee1e8a71d2ba, type: 2}
      propertyPath: m_LocalPosition.z
      value: -35
      objectReference: {fileID: 0}
    - target: {fileID: 4982120152876262, guid: 7ef1c299b15f1e04d9c8ee1e8a71d2ba, type: 2}
      propertyPath: m_LocalRotation.x
      value: 0.000000021855694
      objectReference: {fileID: 0}
    - target: {fileID: 4982120152876262, guid: 7ef1c299b15f1e04d9c8ee1e8a71d2ba, type: 2}
      propertyPath: m_LocalRotation.y
      value: -0
      objectReference: {fileID: 0}
    - target: {fileID: 4982120152876262, guid: 7ef1c299b15f1e04d9c8ee1e8a71d2ba, type: 2}
      propertyPath: m_LocalRotation.z
      value: -0
      objectReference: {fileID: 0}
    - target: {fileID: 4982120152876262, guid: 7ef1c299b15f1e04d9c8ee1e8a71d2ba, type: 2}
      propertyPath: m_LocalRotation.w
      value: 1
      objectReference: {fileID: 0}
    - target: {fileID: 4982120152876262, guid: 7ef1c299b15f1e04d9c8ee1e8a71d2ba, type: 2}
      propertyPath: m_RootOrder
      value: 7
      objectReference: {fileID: 0}
    m_RemovedComponents: []
  m_ParentPrefab: {fileID: 100100000, guid: 7ef1c299b15f1e04d9c8ee1e8a71d2ba, type: 2}
  m_RootGameObject: {fileID: 469238750}
  m_IsPrefabParent: 0
--- !u!4 &1460490629
Transform:
  m_ObjectHideFlags: 0
  m_PrefabParentObject: {fileID: 4982120152876262, guid: 7ef1c299b15f1e04d9c8ee1e8a71d2ba,
    type: 2}
  m_PrefabInternal: {fileID: 1460490628}
  m_GameObject: {fileID: 469238750}
  m_LocalRotation: {x: 0.000000021855694, y: -0, z: -0, w: 1}
  m_LocalPosition: {x: -0.00000015258789, y: 0, z: -35}
  m_LocalScale: {x: 1, y: 1, z: 1}
  m_Children: []
  m_Father: {fileID: 2027220528}
  m_RootOrder: 7
  m_LocalEulerAnglesHint: {x: 0, y: 0, z: 0}
--- !u!1 &1599694855
GameObject:
  m_ObjectHideFlags: 0
  m_PrefabParentObject: {fileID: 0}
  m_PrefabInternal: {fileID: 0}
  serializedVersion: 5
  m_Component:
  - component: {fileID: 1599694860}
  - component: {fileID: 1599694859}
  - component: {fileID: 1599694858}
  - component: {fileID: 1599694857}
  - component: {fileID: 1599694856}
  m_Layer: 0
  m_Name: Main Camera
  m_TagString: MainCamera
  m_Icon: {fileID: 0}
  m_NavMeshLayer: 0
  m_StaticEditorFlags: 0
  m_IsActive: 1
--- !u!81 &1599694856
AudioListener:
  m_ObjectHideFlags: 0
  m_PrefabParentObject: {fileID: 0}
  m_PrefabInternal: {fileID: 0}
  m_GameObject: {fileID: 1599694855}
  m_Enabled: 1
--- !u!124 &1599694857
Behaviour:
  m_ObjectHideFlags: 0
  m_PrefabParentObject: {fileID: 0}
  m_PrefabInternal: {fileID: 0}
  m_GameObject: {fileID: 1599694855}
  m_Enabled: 1
--- !u!92 &1599694858
Behaviour:
  m_ObjectHideFlags: 0
  m_PrefabParentObject: {fileID: 0}
  m_PrefabInternal: {fileID: 0}
  m_GameObject: {fileID: 1599694855}
  m_Enabled: 1
--- !u!20 &1599694859
Camera:
  m_ObjectHideFlags: 0
  m_PrefabParentObject: {fileID: 0}
  m_PrefabInternal: {fileID: 0}
  m_GameObject: {fileID: 1599694855}
  m_Enabled: 1
  serializedVersion: 2
  m_ClearFlags: 1
  m_BackGroundColor: {r: 0.19215687, g: 0.3019608, b: 0.4745098, a: 0}
  m_NormalizedViewPortRect:
    serializedVersion: 2
    x: 0
    y: 0
    width: 1
    height: 1
  near clip plane: 0.3
  far clip plane: 1000
  field of view: 60
  orthographic: 0
  orthographic size: 5
  m_Depth: -1
  m_CullingMask:
    serializedVersion: 2
    m_Bits: 4294967295
  m_RenderingPath: -1
  m_TargetTexture: {fileID: 0}
  m_TargetDisplay: 0
  m_TargetEye: 3
  m_HDR: 0
  m_AllowMSAA: 1
  m_AllowDynamicResolution: 0
  m_ForceIntoRT: 0
  m_OcclusionCulling: 1
  m_StereoConvergence: 10
  m_StereoSeparation: 0.022
--- !u!4 &1599694860
Transform:
  m_ObjectHideFlags: 0
  m_PrefabParentObject: {fileID: 0}
  m_PrefabInternal: {fileID: 0}
  m_GameObject: {fileID: 1599694855}
  m_LocalRotation: {x: 0.31355503, y: -0, z: -0, w: 0.9495701}
  m_LocalPosition: {x: 0, y: 2.25, z: -2.55}
  m_LocalScale: {x: 1, y: 1, z: 1}
  m_Children: []
  m_Father: {fileID: 0}
  m_RootOrder: 0
  m_LocalEulerAnglesHint: {x: 36.547, y: 0, z: 0}
--- !u!1 &1674137491
GameObject:
  m_ObjectHideFlags: 0
  m_PrefabParentObject: {fileID: 1790048220613924, guid: f691ea6857fd397438a6883bea62a396,
    type: 2}
  m_PrefabInternal: {fileID: 581107167}
  serializedVersion: 5
  m_Component:
  - component: {fileID: 581107168}
  - component: {fileID: 1674137493}
  - component: {fileID: 1674137492}
  m_Layer: 0
  m_Name: StarSparrow2
  m_TagString: Untagged
  m_Icon: {fileID: 0}
  m_NavMeshLayer: 0
  m_StaticEditorFlags: 0
  m_IsActive: 1
--- !u!23 &1674137492
MeshRenderer:
  m_ObjectHideFlags: 0
  m_PrefabParentObject: {fileID: 23310909090924236, guid: f691ea6857fd397438a6883bea62a396,
    type: 2}
  m_PrefabInternal: {fileID: 581107167}
  m_GameObject: {fileID: 1674137491}
  m_Enabled: 1
  m_CastShadows: 1
  m_ReceiveShadows: 1
  m_DynamicOccludee: 1
  m_MotionVectors: 1
  m_LightProbeUsage: 1
  m_ReflectionProbeUsage: 1
  m_Materials:
  - {fileID: 2100000, guid: 0230ae40ec83e1f43873bd391ba0d865, type: 2}
  m_StaticBatchInfo:
    firstSubMesh: 0
    subMeshCount: 0
  m_StaticBatchRoot: {fileID: 0}
  m_ProbeAnchor: {fileID: 0}
  m_LightProbeVolumeOverride: {fileID: 0}
  m_ScaleInLightmap: 1
  m_PreserveUVs: 0
  m_IgnoreNormalsForChartDetection: 0
  m_ImportantGI: 0
  m_StitchLightmapSeams: 0
  m_SelectedEditorRenderState: 3
  m_MinimumChartSize: 4
  m_AutoUVMaxDistance: 0.5
  m_AutoUVMaxAngle: 89
  m_LightmapParameters: {fileID: 0}
  m_SortingLayerID: 0
  m_SortingLayer: 0
  m_SortingOrder: 0
--- !u!33 &1674137493
MeshFilter:
  m_ObjectHideFlags: 0
  m_PrefabParentObject: {fileID: 33948467515178474, guid: f691ea6857fd397438a6883bea62a396,
    type: 2}
  m_PrefabInternal: {fileID: 581107167}
  m_GameObject: {fileID: 1674137491}
  m_Mesh: {fileID: 4300002, guid: add769d179a9826498fc063c005d35bd, type: 3}
--- !u!1 &2009514582
GameObject:
  m_ObjectHideFlags: 0
  m_PrefabParentObject: {fileID: 1173831379041666, guid: 4794909351c943c40b3c6c011c5a478f,
    type: 2}
  m_PrefabInternal: {fileID: 2145699702}
  serializedVersion: 5
  m_Component:
  - component: {fileID: 2145699703}
  - component: {fileID: 2009514584}
  - component: {fileID: 2009514583}
  m_Layer: 0
  m_Name: StarSparrow9
  m_TagString: Untagged
  m_Icon: {fileID: 0}
  m_NavMeshLayer: 0
  m_StaticEditorFlags: 0
  m_IsActive: 1
--- !u!23 &2009514583
MeshRenderer:
  m_ObjectHideFlags: 0
  m_PrefabParentObject: {fileID: 23703061122925786, guid: 4794909351c943c40b3c6c011c5a478f,
    type: 2}
  m_PrefabInternal: {fileID: 2145699702}
  m_GameObject: {fileID: 2009514582}
  m_Enabled: 1
  m_CastShadows: 1
  m_ReceiveShadows: 1
  m_DynamicOccludee: 1
  m_MotionVectors: 1
  m_LightProbeUsage: 1
  m_ReflectionProbeUsage: 1
  m_Materials:
  - {fileID: 2100000, guid: 37b02a1b1181b4b4bbd714a242a00b15, type: 2}
  m_StaticBatchInfo:
    firstSubMesh: 0
    subMeshCount: 0
  m_StaticBatchRoot: {fileID: 0}
  m_ProbeAnchor: {fileID: 0}
  m_LightProbeVolumeOverride: {fileID: 0}
  m_ScaleInLightmap: 1
  m_PreserveUVs: 0
  m_IgnoreNormalsForChartDetection: 0
  m_ImportantGI: 0
  m_StitchLightmapSeams: 0
  m_SelectedEditorRenderState: 3
  m_MinimumChartSize: 4
  m_AutoUVMaxDistance: 0.5
  m_AutoUVMaxAngle: 89
  m_LightmapParameters: {fileID: 0}
  m_SortingLayerID: 0
  m_SortingLayer: 0
  m_SortingOrder: 0
--- !u!33 &2009514584
MeshFilter:
  m_ObjectHideFlags: 0
  m_PrefabParentObject: {fileID: 33793947946638098, guid: 4794909351c943c40b3c6c011c5a478f,
    type: 2}
  m_PrefabInternal: {fileID: 2145699702}
  m_GameObject: {fileID: 2009514582}
  m_Mesh: {fileID: 4300016, guid: add769d179a9826498fc063c005d35bd, type: 3}
--- !u!1 &2027220526
GameObject:
  m_ObjectHideFlags: 0
  m_PrefabParentObject: {fileID: 100018, guid: add769d179a9826498fc063c005d35bd, type: 3}
  m_PrefabInternal: {fileID: 0}
  serializedVersion: 5
  m_Component:
  - component: {fileID: 2027220528}
  - component: {fileID: 2027220527}
  m_Layer: 0
  m_Name: StarSparrowExamples
  m_TagString: Untagged
  m_Icon: {fileID: 0}
  m_NavMeshLayer: 0
  m_StaticEditorFlags: 0
  m_IsActive: 1
--- !u!95 &2027220527
Animator:
  serializedVersion: 3
  m_ObjectHideFlags: 0
  m_PrefabParentObject: {fileID: 9500000, guid: add769d179a9826498fc063c005d35bd,
    type: 3}
  m_PrefabInternal: {fileID: 0}
  m_GameObject: {fileID: 2027220526}
  m_Enabled: 1
  m_Avatar: {fileID: 9000000, guid: add769d179a9826498fc063c005d35bd, type: 3}
  m_Controller: {fileID: 0}
  m_CullingMode: 0
  m_UpdateMode: 0
  m_ApplyRootMotion: 0
  m_LinearVelocityBlending: 0
  m_WarningMessage: 
  m_HasTransformHierarchy: 1
  m_AllowConstantClipSamplingOptimization: 1
--- !u!4 &2027220528
Transform:
  m_ObjectHideFlags: 0
  m_PrefabParentObject: {fileID: 400018, guid: add769d179a9826498fc063c005d35bd, type: 3}
  m_PrefabInternal: {fileID: 0}
  m_GameObject: {fileID: 2027220526}
  m_LocalRotation: {x: 0, y: 0, z: 0, w: 1}
  m_LocalPosition: {x: 0, y: 0, z: 0}
  m_LocalScale: {x: 1, y: 1, z: 1}
  m_Children:
  - {fileID: 1223383454}
  - {fileID: 581107168}
  - {fileID: 604967112}
  - {fileID: 709056912}
  - {fileID: 402635654}
  - {fileID: 1324948060}
  - {fileID: 1035366047}
  - {fileID: 1460490629}
  - {fileID: 2145699703}
  m_Father: {fileID: 0}
  m_RootOrder: 1
  m_LocalEulerAnglesHint: {x: 0, y: 0, z: 0}
--- !u!1001 &2145699702
Prefab:
  m_ObjectHideFlags: 0
  serializedVersion: 2
  m_Modification:
    m_TransformParent: {fileID: 2027220528}
    m_Modifications:
    - target: {fileID: 4206197176531932, guid: 4794909351c943c40b3c6c011c5a478f, type: 2}
      propertyPath: m_LocalPosition.x
      value: -0.00000015258789
      objectReference: {fileID: 0}
    - target: {fileID: 4206197176531932, guid: 4794909351c943c40b3c6c011c5a478f, type: 2}
      propertyPath: m_LocalPosition.y
      value: 0
      objectReference: {fileID: 0}
    - target: {fileID: 4206197176531932, guid: 4794909351c943c40b3c6c011c5a478f, type: 2}
      propertyPath: m_LocalPosition.z
      value: -40
      objectReference: {fileID: 0}
    - target: {fileID: 4206197176531932, guid: 4794909351c943c40b3c6c011c5a478f, type: 2}
      propertyPath: m_LocalRotation.x
      value: 0.000000021855694
      objectReference: {fileID: 0}
    - target: {fileID: 4206197176531932, guid: 4794909351c943c40b3c6c011c5a478f, type: 2}
      propertyPath: m_LocalRotation.y
      value: -0
      objectReference: {fileID: 0}
    - target: {fileID: 4206197176531932, guid: 4794909351c943c40b3c6c011c5a478f, type: 2}
      propertyPath: m_LocalRotation.z
      value: -0
      objectReference: {fileID: 0}
    - target: {fileID: 4206197176531932, guid: 4794909351c943c40b3c6c011c5a478f, type: 2}
      propertyPath: m_LocalRotation.w
      value: 1
      objectReference: {fileID: 0}
    - target: {fileID: 4206197176531932, guid: 4794909351c943c40b3c6c011c5a478f, type: 2}
      propertyPath: m_RootOrder
      value: 8
      objectReference: {fileID: 0}
    m_RemovedComponents: []
  m_ParentPrefab: {fileID: 100100000, guid: 4794909351c943c40b3c6c011c5a478f, type: 2}
  m_RootGameObject: {fileID: 2009514582}
  m_IsPrefabParent: 0
--- !u!4 &2145699703
Transform:
  m_ObjectHideFlags: 0
  m_PrefabParentObject: {fileID: 4206197176531932, guid: 4794909351c943c40b3c6c011c5a478f,
    type: 2}
  m_PrefabInternal: {fileID: 2145699702}
  m_GameObject: {fileID: 2009514582}
  m_LocalRotation: {x: 0.000000021855694, y: -0, z: -0, w: 1}
  m_LocalPosition: {x: -0.00000015258789, y: 0, z: -40}
  m_LocalScale: {x: 1, y: 1, z: 1}
  m_Children: []
  m_Father: {fileID: 2027220528}
  m_RootOrder: 8
  m_LocalEulerAnglesHint: {x: 0, y: 0, z: 0}
